<?xml version="1.0" encoding="UTF-8" standalone="no"?>
<!-- Created with Inkscape (http://www.inkscape.org/) -->

<svg
   xmlns:dc="http://purl.org/dc/elements/1.1/"
   xmlns:cc="http://creativecommons.org/ns#"
   xmlns:rdf="http://www.w3.org/1999/02/22-rdf-syntax-ns#"
   xmlns:svg="http://www.w3.org/2000/svg"
   xmlns="http://www.w3.org/2000/svg"
   xmlns:sodipodi="http://sodipodi.sourceforge.net/DTD/sodipodi-0.dtd"
   xmlns:inkscape="http://www.inkscape.org/namespaces/inkscape"
   width="297mm"
   height="210mm"
   viewBox="0 0 297 210"
   version="1.1"
   id="svg8"
   inkscape:version="0.92.5 (2060ec1f9f, 2020-04-08)"
   sodipodi:docname="z-up.svg"
   enable-background="new"
   inkscape:export-filename="/media/edbraed/ED_CONTENT/Projects/edbraednotes/imgs/z-up.png"
   inkscape:export-xdpi="96"
   inkscape:export-ydpi="96">
  <defs
     id="defs2">
    <marker
       inkscape:isstock="true"
       style="overflow:visible"
       id="marker8126"
       refX="0"
       refY="0"
       orient="auto"
       inkscape:stockid="Arrow2Mstart">
      <path
         transform="scale(0.6)"
         d="M 8.7185878,4.0337352 -2.2072895,0.01601326 8.7185884,-4.0017078 c -1.7454984,2.3720609 -1.7354408,5.6174519 -6e-7,8.035443 z"
         style="fill:#000000;fill-opacity:1;fill-rule:evenodd;stroke:#000000;stroke-width:0.625;stroke-linejoin:round;stroke-opacity:1"
         id="path8124"
         inkscape:connector-curvature="0" />
    </marker>
    <marker
       inkscape:isstock="true"
       style="overflow:visible"
       id="marker8038"
       refX="0"
       refY="0"
       orient="auto"
       inkscape:stockid="Arrow2Mstart">
      <path
         transform="scale(0.6)"
         d="M 8.7185878,4.0337352 -2.2072895,0.01601326 8.7185884,-4.0017078 c -1.7454984,2.3720609 -1.7354408,5.6174519 -6e-7,8.035443 z"
         style="fill:#000000;fill-opacity:1;fill-rule:evenodd;stroke:#000000;stroke-width:0.625;stroke-linejoin:round;stroke-opacity:1"
         id="path8036"
         inkscape:connector-curvature="0" />
    </marker>
    <marker
       inkscape:isstock="true"
       style="overflow:visible"
       id="marker7956"
       refX="0"
       refY="0"
       orient="auto"
       inkscape:stockid="Arrow2Mstart">
      <path
         transform="scale(0.6)"
         d="M 8.7185878,4.0337352 -2.2072895,0.01601326 8.7185884,-4.0017078 c -1.7454984,2.3720609 -1.7354408,5.6174519 -6e-7,8.035443 z"
         style="fill:#000000;fill-opacity:1;fill-rule:evenodd;stroke:#000000;stroke-width:0.625;stroke-linejoin:round;stroke-opacity:1"
         id="path7954"
         inkscape:connector-curvature="0" />
    </marker>
    <marker
       inkscape:isstock="true"
       style="overflow:visible"
       id="marker7880"
       refX="0.0"
       refY="0.0"
       orient="auto"
       inkscape:stockid="Arrow2Mstart">
      <path
         transform="scale(0.6) translate(0,0)"
         d="M 8.7185878,4.0337352 L -2.2072895,0.016013256 L 8.7185884,-4.0017078 C 6.9730900,-1.6296469 6.9831476,1.6157441 8.7185878,4.0337352 z "
         style="fill-rule:evenodd;stroke-width:0.625;stroke-linejoin:round;stroke:#000000;stroke-opacity:1;fill:#000000;fill-opacity:1"
         id="path7878" />
    </marker>
    <marker
       inkscape:isstock="true"
       style="overflow:visible"
       id="marker7786"
       refX="0"
       refY="0"
       orient="auto"
       inkscape:stockid="Arrow2Mstart">
      <path
         transform="scale(0.6)"
         d="M 8.7185878,4.0337352 -2.2072895,0.01601326 8.7185884,-4.0017078 c -1.7454984,2.3720609 -1.7354408,5.6174519 -6e-7,8.035443 z"
         style="fill:#000000;fill-opacity:1;fill-rule:evenodd;stroke:#000000;stroke-width:0.625;stroke-linejoin:round;stroke-opacity:1"
         id="path7784"
         inkscape:connector-curvature="0" />
    </marker>
    <marker
       inkscape:isstock="true"
       style="overflow:visible"
       id="marker7710"
       refX="0"
       refY="0"
       orient="auto"
       inkscape:stockid="Arrow2Mstart">
      <path
         transform="scale(0.6)"
         d="M 8.7185878,4.0337352 -2.2072895,0.01601326 8.7185884,-4.0017078 c -1.7454984,2.3720609 -1.7354408,5.6174519 -6e-7,8.035443 z"
         style="fill:#000000;fill-opacity:1;fill-rule:evenodd;stroke:#000000;stroke-width:0.625;stroke-linejoin:round;stroke-opacity:1"
         id="path7708"
         inkscape:connector-curvature="0" />
    </marker>
    <marker
       inkscape:stockid="Arrow2Mstart"
       orient="auto"
       refY="0.0"
       refX="0.0"
       id="Arrow2Mstart"
       style="overflow:visible"
       inkscape:isstock="true"
       inkscape:collect="always">
      <path
         id="path843"
         style="fill-rule:evenodd;stroke-width:0.625;stroke-linejoin:round;stroke:#00ff00;stroke-opacity:1;fill:#00ff00;fill-opacity:1"
         d="M 8.7185878,4.0337352 L -2.2072895,0.016013256 L 8.7185884,-4.0017078 C 6.9730900,-1.6296469 6.9831476,1.6157441 8.7185878,4.0337352 z "
         transform="scale(0.6) translate(0,0)" />
    </marker>
    <marker
       inkscape:stockid="Arrow2Mstart"
       orient="auto"
       refY="0"
       refX="0"
       id="Arrow2Mstart-3"
       style="overflow:visible"
       inkscape:isstock="true"
       inkscape:collect="always">
      <path
         inkscape:connector-curvature="0"
         id="path843-6"
         style="fill:#ff0000;fill-opacity:1;fill-rule:evenodd;stroke:#ff0000;stroke-width:0.625;stroke-linejoin:round;stroke-opacity:1"
         d="M 8.7185878,4.0337352 -2.2072895,0.01601326 8.7185884,-4.0017078 c -1.7454984,2.3720609 -1.7354408,5.6174519 -6e-7,8.035443 z"
         transform="scale(0.6)" />
    </marker>
    <marker
       inkscape:stockid="Arrow2Mstart"
       orient="auto"
       refY="0"
       refX="0"
       id="Arrow2Mstart-3-5"
       style="overflow:visible"
       inkscape:isstock="true"
       inkscape:collect="always">
      <path
         inkscape:connector-curvature="0"
         id="path843-6-3"
         style="fill:#0000ff;fill-opacity:1;fill-rule:evenodd;stroke:#0000ff;stroke-width:0.625;stroke-linejoin:round;stroke-opacity:1"
         d="M 8.7185878,4.0337352 -2.2072895,0.01601326 8.7185884,-4.0017078 c -1.7454984,2.3720609 -1.7354408,5.6174519 -6e-7,8.035443 z"
         transform="scale(0.6)" />
    </marker>
    <marker
       inkscape:stockid="Arrow2Mstart"
       orient="auto"
       refY="0"
       refX="0"
       id="Arrow2Mstart-3-5-3"
       style="overflow:visible"
       inkscape:isstock="true">
      <path
         inkscape:connector-curvature="0"
         id="path843-6-3-6"
         style="fill:#0000ff;fill-opacity:1;fill-rule:evenodd;stroke:#0000ff;stroke-width:0.625;stroke-linejoin:round;stroke-opacity:1"
         d="M 8.7185878,4.0337352 -2.2072895,0.01601326 8.7185884,-4.0017078 c -1.7454984,2.3720609 -1.7354408,5.6174519 -6e-7,8.035443 z"
         transform="scale(0.6)" />
    </marker>
    <marker
       inkscape:stockid="Arrow2Mstart"
       orient="auto"
       refY="0"
       refX="0"
       id="Arrow2Mstart-6"
       style="overflow:visible"
       inkscape:isstock="true"
       inkscape:collect="always">
      <path
         inkscape:connector-curvature="0"
         id="path843-2"
         style="fill:#0000ff;fill-opacity:1;fill-rule:evenodd;stroke:#0000ff;stroke-width:0.625;stroke-linejoin:round;stroke-opacity:1"
         d="M 8.7185878,4.0337352 -2.2072895,0.01601326 8.7185884,-4.0017078 c -1.7454984,2.3720609 -1.7354408,5.6174519 -6e-7,8.035443 z"
         transform="scale(0.6)" />
    </marker>
    <marker
       inkscape:stockid="Arrow2Mstart"
       orient="auto"
       refY="0"
       refX="0"
       id="Arrow2Mstart-3-5-9"
       style="overflow:visible"
       inkscape:isstock="true"
       inkscape:collect="always">
      <path
         inkscape:connector-curvature="0"
         id="path843-6-3-1"
         style="fill:#00ff00;fill-opacity:1;fill-rule:evenodd;stroke:#00ff00;stroke-width:0.625;stroke-linejoin:round;stroke-opacity:1"
         d="M 8.7185878,4.0337352 -2.2072895,0.01601326 8.7185884,-4.0017078 c -1.7454984,2.3720609 -1.7354408,5.6174519 -6e-7,8.035443 z"
         transform="scale(0.6)" />
    </marker>
    <marker
       inkscape:stockid="Arrow2Mstart"
       orient="auto"
       refY="0"
       refX="0"
       id="Arrow2Mstart-3-2"
       style="overflow:visible"
       inkscape:isstock="true"
       inkscape:collect="always">
      <path
         inkscape:connector-curvature="0"
         id="path843-6-7"
         style="fill:#ff0000;fill-opacity:1;fill-rule:evenodd;stroke:#ff0000;stroke-width:0.625;stroke-linejoin:round;stroke-opacity:1"
         d="M 8.7185878,4.0337352 -2.2072895,0.01601326 8.7185884,-4.0017078 c -1.7454984,2.3720609 -1.7354408,5.6174519 -6e-7,8.035443 z"
         transform="scale(0.6)" />
    </marker>
    <filter
       inkscape:collect="always"
       style="color-interpolation-filters:sRGB"
       id="filter7422"
       x="-0.14157034"
       width="1.2831407"
       y="-0.35418546"
       height="1.7083709">
      <feGaussianBlur
         inkscape:collect="always"
         stdDeviation="15.72017"
         id="feGaussianBlur7424" />
      <feBlend
         inkscape:collect="always"
         mode="screen"
         in2="BackgroundImage"
         id="feBlend7426" />
    </filter>
    <filter
       inkscape:collect="always"
       style="color-interpolation-filters:sRGB"
       id="filter9156"
       x="-0.036112435"
       width="1.0722249"
       y="-0.090347313"
       height="1.1806946">
      <feGaussianBlur
         inkscape:collect="always"
         stdDeviation="4.0099757"
         id="feGaussianBlur9158" />
    </filter>
  </defs>
  <sodipodi:namedview
     id="base"
     pagecolor="#ffffff"
     bordercolor="#666666"
     borderopacity="1.0"
     inkscape:pageopacity="1"
     inkscape:pageshadow="2"
     inkscape:zoom="0.95787148"
     inkscape:cx="501.44144"
     inkscape:cy="440.15043"
     inkscape:document-units="mm"
     inkscape:current-layer="g7124"
     showgrid="false"
     inkscape:window-width="2560"
     inkscape:window-height="1375"
     inkscape:window-x="1080"
     inkscape:window-y="0"
     inkscape:window-maximized="1"
     inkscape:pagecheckerboard="false" />
  <metadata
     id="metadata5">
    <rdf:RDF>
      <cc:Work
         rdf:about="">
        <dc:format>image/svg+xml</dc:format>
        <dc:type
           rdf:resource="http://purl.org/dc/dcmitype/StillImage" />
        <dc:title />
      </cc:Work>
    </rdf:RDF>
  </metadata>
  <g
     id="layer2"
     inkscape:label="Background"
     inkscape:highlight-color="2139062271"
     inkscape:groupmode="layer"
     style="display:inline;opacity:1"
     sodipodi:insensitive="true">
    <rect
       style="opacity:1;fill:#787878;fill-opacity:1;stroke:none;stroke-width:1.10441577;stroke-miterlimit:4;stroke-dasharray:none;stroke-opacity:1"
       id="rect872"
       width="297.07727"
       height="210.8674"
       x="0.39063418"
       y="-0.86742401"
       sodipodi:insensitive="true" />
  </g>
  <g
     inkscape:label="Layer 1"
     inkscape:groupmode="layer"
     id="layer1"
     transform="translate(0,-87)"
     style="display:none;opacity:1;filter:url(#filter7422)"
     sodipodi:insensitive="true">
    <path
       style="fill:none;stroke:#00ff00;stroke-width:1.33332336;stroke-linecap:butt;stroke-linejoin:miter;stroke-miterlimit:4;stroke-dasharray:none;stroke-opacity:1;marker-start:url(#Arrow2Mstart)"
       d="m 19.686501,143.44652 v 92.48079"
       id="path817"
       inkscape:connector-curvature="0" />
    <path
       style="fill:none;stroke:#ff0000;stroke-width:1.13697863;stroke-linecap:butt;stroke-linejoin:miter;stroke-miterlimit:4;stroke-dasharray:none;stroke-opacity:1;marker-start:url(#Arrow2Mstart-3)"
       d="M 86.935395,235.92731 H 19.686501"
       id="path817-7"
       inkscape:connector-curvature="0" />
    <path
       style="fill:none;stroke:#0000ff;stroke-width:0.99703628;stroke-linecap:butt;stroke-linejoin:miter;stroke-miterlimit:4;stroke-dasharray:none;stroke-opacity:1;marker-start:url(#Arrow2Mstart-3-5)"
       d="M 68.467951,187.14586 19.567606,236.04621"
       id="path817-7-5"
       inkscape:connector-curvature="0" />
    <circle
       style="opacity:1;fill:#d6d6d6;fill-opacity:1;stroke:#b3b3b3;stroke-width:0.66371673;stroke-miterlimit:4;stroke-dasharray:none;stroke-opacity:1"
       id="path6861"
       cx="19.694962"
       cy="235.89702"
       r="2.0255504" />
    <text
       xml:space="preserve"
       style="font-style:normal;font-variant:normal;font-weight:normal;font-stretch:normal;font-size:8.7804184px;line-height:1.25;font-family:'DejaVu Sans Mono';-inkscape-font-specification:'DejaVu Sans Mono';letter-spacing:0px;word-spacing:0px;fill:#00ff00;fill-opacity:1;stroke:none;stroke-width:0.21951047"
       x="24.802483"
       y="144.4182"
       id="text861"><tspan
         sodipodi:role="line"
         id="tspan859"
         x="24.802483"
         y="144.4182"
         style="fill:#00ff00;fill-opacity:1;stroke-width:0.21951047">y-up</tspan></text>
    <text
       xml:space="preserve"
       style="font-style:normal;font-weight:normal;font-size:10.58333302px;line-height:1.25;font-family:sans-serif;letter-spacing:0px;word-spacing:0px;fill:#0000ff;fill-opacity:1;stroke:none;stroke-width:0.21951047"
       x="61.624401"
       y="185.82523"
       id="text866"><tspan
         sodipodi:role="line"
         id="tspan864"
         x="61.624401"
         y="185.82523"
         style="font-size:10.58333302px;fill:#0000ff;fill-opacity:1;stroke-width:0.21951047">z</tspan></text>
    <text
       xml:space="preserve"
       style="font-style:normal;font-weight:normal;font-size:10.58333302px;line-height:1.25;font-family:sans-serif;letter-spacing:0px;word-spacing:0px;fill:#ff0000;fill-opacity:1;stroke:none;stroke-width:0.26458332"
       x="83.791016"
       y="246.02226"
       id="text870"><tspan
         sodipodi:role="line"
         id="tspan868"
         x="83.791016"
         y="246.02226"
         style="fill:#ff0000;fill-opacity:1;stroke-width:0.26458332">x</tspan></text>
    <path
       style="fill:none;stroke:#ff0000;stroke-width:0.99699998;stroke-linecap:butt;stroke-linejoin:miter;stroke-miterlimit:4;stroke-dasharray:0.99699999, 0.99699999;stroke-dashoffset:0;stroke-opacity:1"
       d="M 137.62349,187.14587 88.723143,236.04621"
       id="path817-7-5-7"
       inkscape:connector-curvature="0" />
    <path
       style="fill:none;stroke:#0000ff;stroke-width:0.99699998;stroke-linecap:butt;stroke-linejoin:miter;stroke-miterlimit:4;stroke-dasharray:0.997, 0.997;stroke-dashoffset:0;stroke-opacity:1"
       d="m 137.62349,187.14587 -69.155539,-1e-5"
       id="path817-7-5-7-5"
       inkscape:connector-curvature="0" />
    <path
       style="fill:none;stroke:#ff0000;stroke-width:0.99699998;stroke-linecap:butt;stroke-linejoin:miter;stroke-miterlimit:4;stroke-dasharray:0.997, 0.997;stroke-dashoffset:0;stroke-opacity:1"
       d="M 99.714391,187.12912 50.814044,236.02946"
       id="path817-7-5-7-3"
       inkscape:connector-curvature="0" />
    <path
       style="fill:none;stroke:#0000ff;stroke-width:0.99699998;stroke-linecap:butt;stroke-linejoin:miter;stroke-miterlimit:4;stroke-dasharray:0.99700001, 0.99700001;stroke-dashoffset:0;stroke-opacity:1"
       d="m 113.8765,210.27923 -69.155532,-1e-5"
       id="path817-7-5-7-5-5"
       inkscape:connector-curvature="0" />
    <path
       style="fill:none;stroke:#0000ff;stroke-width:1.33332336;stroke-linecap:butt;stroke-linejoin:miter;stroke-miterlimit:4;stroke-dasharray:none;stroke-opacity:1;marker-start:url(#Arrow2Mstart-6)"
       d="m 166.23179,143.06687 v 92.48079"
       id="path817-0"
       inkscape:connector-curvature="0" />
    <path
       style="fill:none;stroke:#ff0000;stroke-width:1.13697863;stroke-linecap:butt;stroke-linejoin:miter;stroke-miterlimit:4;stroke-dasharray:none;stroke-opacity:1;marker-start:url(#Arrow2Mstart-3-2)"
       d="m 233.48069,235.54766 h -67.2489"
       id="path817-7-9"
       inkscape:connector-curvature="0" />
    <path
       style="fill:none;stroke:#00ff00;stroke-width:0.99703628;stroke-linecap:butt;stroke-linejoin:miter;stroke-miterlimit:4;stroke-dasharray:none;stroke-opacity:1;marker-start:url(#Arrow2Mstart-3-5-9)"
       d="M 215.01324,186.76621 166.1129,235.66656"
       id="path817-7-5-3"
       inkscape:connector-curvature="0" />
    <circle
       style="opacity:1;fill:#d6d6d6;fill-opacity:1;stroke:#b3b3b3;stroke-width:0.66371673;stroke-miterlimit:4;stroke-dasharray:none;stroke-opacity:1"
       id="path6861-6"
       cx="166.24026"
       cy="235.51736"
       r="2.0255504" />
    <path
       style="fill:none;stroke:#ff0000;stroke-width:0.99699998;stroke-linecap:butt;stroke-linejoin:miter;stroke-miterlimit:4;stroke-dasharray:0.997, 0.997;stroke-dashoffset:0;stroke-opacity:1"
       d="m 284.16879,186.76622 -48.90036,48.90034"
       id="path817-7-5-7-0"
       inkscape:connector-curvature="0" />
    <path
       style="fill:none;stroke:#00ff00;stroke-width:0.99699998;stroke-linecap:butt;stroke-linejoin:miter;stroke-miterlimit:4;stroke-dasharray:0.99700001, 0.99700001;stroke-dashoffset:0;stroke-opacity:1"
       d="m 284.16879,186.76622 -69.15555,-1e-5"
       id="path817-7-5-7-5-6"
       inkscape:connector-curvature="0" />
    <path
       style="fill:none;stroke:#ff0000;stroke-width:0.99699998;stroke-linecap:butt;stroke-linejoin:miter;stroke-miterlimit:4;stroke-dasharray:0.99700001, 0.99700001;stroke-dashoffset:0;stroke-opacity:1"
       d="m 246.25968,186.74947 -48.90035,48.90034"
       id="path817-7-5-7-3-2"
       inkscape:connector-curvature="0" />
    <path
       style="fill:none;stroke:#00ff00;stroke-width:0.99699998;stroke-linecap:butt;stroke-linejoin:miter;stroke-miterlimit:4;stroke-dasharray:0.99700002, 0.99700002;stroke-dashoffset:0;stroke-opacity:1"
       d="m 260.42179,209.89958 -69.15553,-10e-6"
       id="path817-7-5-7-5-5-6"
       inkscape:connector-curvature="0" />
    <text
       xml:space="preserve"
       style="font-style:normal;font-weight:normal;font-size:10.58333302px;line-height:1.25;font-family:sans-serif;letter-spacing:0px;word-spacing:0px;fill:#0000ff;fill-opacity:1;stroke:none;stroke-width:0.26458332"
       x="171.09776"
       y="146.0199"
       id="text6886"><tspan
         sodipodi:role="line"
         id="tspan6884"
         x="171.09776"
         y="146.0199"
         style="fill:#0000ff;fill-opacity:1;stroke-width:0.26458332">z-up</tspan></text>
    <text
       xml:space="preserve"
       style="font-style:normal;font-weight:normal;font-size:10.58333302px;line-height:1.25;font-family:sans-serif;letter-spacing:0px;word-spacing:0px;fill:#00ff00;fill-opacity:1;stroke:none;stroke-width:0.26458332"
       x="208.0127"
       y="184.49736"
       id="text6890"><tspan
         sodipodi:role="line"
         id="tspan6888"
         x="208.0127"
         y="184.49736"
         style="fill:#00ff00;fill-opacity:1;stroke-width:0.26458332">y</tspan></text>
    <text
       xml:space="preserve"
       style="font-style:normal;font-weight:normal;font-size:10.58333302px;line-height:1.25;font-family:sans-serif;letter-spacing:0px;word-spacing:0px;fill:#ff0000;fill-opacity:1;stroke:none;stroke-width:0.26458332"
       x="232.03671"
       y="244.85033"
       id="text6894"><tspan
         sodipodi:role="line"
         id="tspan6892"
         x="232.03671"
         y="244.85033"
         style="fill:#ff0000;fill-opacity:1;stroke-width:0.26458332">x</tspan></text>
    <text
       xml:space="preserve"
       style="font-style:normal;font-weight:normal;font-size:7.4083333px;line-height:1.25;font-family:sans-serif;letter-spacing:0px;word-spacing:0px;fill:#ffffff;fill-opacity:1;stroke:none;stroke-width:0.26458332"
       x="227.5444"
       y="182.15356"
       id="text6898"><tspan
         sodipodi:role="line"
         id="tspan6896"
         x="227.5444"
         y="182.15356"
         style="fill:#ffffff;fill-opacity:1;stroke-width:0.26458332">vec2 v(v3);</tspan></text>
    <text
       xml:space="preserve"
       style="font-style:normal;font-weight:normal;font-size:7.4083333px;line-height:1.25;font-family:sans-serif;letter-spacing:0px;word-spacing:0px;fill:#ffffff;fill-opacity:1;stroke:none;stroke-width:0.26458332"
       x="71.876686"
       y="181.95824"
       id="text6902"><tspan
         sodipodi:role="line"
         id="tspan6900"
         x="71.876686"
         y="181.95824"
         style="fill:#ffffff;fill-opacity:1;stroke-width:0.26458332">vec2 v(v3.x, v3.z);</tspan></text>
  </g>
  <g
     transform="translate(0,-87)"
     id="g7124"
     inkscape:groupmode="layer"
     inkscape:label="Копия слоя Layer 1"
     style="display:inline;opacity:1;filter:url(#filter9156)">
    <path
       inkscape:connector-curvature="0"
       id="path7060"
       d="m 19.686501,143.44652 v 92.48079"
       style="fill:none;stroke:#000000;stroke-width:1.33332336;stroke-linecap:butt;stroke-linejoin:miter;stroke-miterlimit:4;stroke-dasharray:none;stroke-opacity:1;marker-start:url(#marker7880)" />
    <path
       inkscape:connector-curvature="0"
       id="path7062"
       d="M 86.935395,235.92731 H 19.686501"
       style="fill:none;stroke:#000000;stroke-width:1.13697863;stroke-linecap:butt;stroke-linejoin:miter;stroke-miterlimit:4;stroke-dasharray:none;stroke-opacity:1;marker-start:url(#marker7956)" />
    <path
       inkscape:connector-curvature="0"
       id="path7064"
       d="M 68.467951,187.14586 19.567606,236.04621"
       style="fill:none;stroke:#000000;stroke-width:0.99703628;stroke-linecap:butt;stroke-linejoin:miter;stroke-miterlimit:4;stroke-dasharray:none;stroke-opacity:1;marker-start:url(#marker8038)" />
    <circle
       r="2.0255504"
       cy="235.89702"
       cx="19.694962"
       id="circle7066"
       style="opacity:1;fill:#000000;fill-opacity:1;stroke:#000000;stroke-width:0.66371673;stroke-miterlimit:4;stroke-dasharray:none;stroke-opacity:1" />
    <text
       id="text7070"
       y="144.4182"
       x="24.802483"
       style="font-style:normal;font-variant:normal;font-weight:normal;font-stretch:normal;font-size:8.7804184px;line-height:1.25;font-family:'DejaVu Sans Mono';-inkscape-font-specification:'DejaVu Sans Mono';letter-spacing:0px;word-spacing:0px;fill:#000000;fill-opacity:1;stroke:none;stroke-width:0.21951047"
       xml:space="preserve"><tspan
         style="fill:#000000;fill-opacity:1;stroke-width:0.21951047"
         y="144.4182"
         x="24.802483"
         id="tspan7068"
         sodipodi:role="line">y-up</tspan></text>
    <text
       id="text7074"
       y="185.82523"
       x="61.624401"
       style="font-style:normal;font-weight:normal;font-size:10.58333302px;line-height:1.25;font-family:sans-serif;letter-spacing:0px;word-spacing:0px;fill:#000000;fill-opacity:1;stroke:none;stroke-width:0.21951047"
       xml:space="preserve"><tspan
         style="font-size:10.58333302px;fill:#000000;fill-opacity:1;stroke-width:0.21951047"
         y="185.82523"
         x="61.624401"
         id="tspan7072"
         sodipodi:role="line">z</tspan></text>
    <text
       id="text7078"
       y="246.02226"
       x="83.791016"
       style="font-style:normal;font-weight:normal;font-size:10.58333302px;line-height:1.25;font-family:sans-serif;letter-spacing:0px;word-spacing:0px;fill:#000000;fill-opacity:1;stroke:none;stroke-width:0.26458332"
       xml:space="preserve"><tspan
         style="fill:#000000;fill-opacity:1;stroke-width:0.26458332"
         y="246.02226"
         x="83.791016"
         id="tspan7076"
         sodipodi:role="line">x</tspan></text>
    <path
       inkscape:connector-curvature="0"
       id="path7080"
       d="M 137.62349,187.14587 88.723143,236.04621"
       style="fill:none;stroke:#000000;stroke-width:0.99699998;stroke-linecap:butt;stroke-linejoin:miter;stroke-miterlimit:4;stroke-dasharray:0.99699999, 0.99699999;stroke-dashoffset:0;stroke-opacity:1" />
    <path
       inkscape:connector-curvature="0"
       id="path7082"
       d="m 137.62349,187.14587 -69.155539,-1e-5"
       style="fill:none;stroke:#000000;stroke-width:0.99699998;stroke-linecap:butt;stroke-linejoin:miter;stroke-miterlimit:4;stroke-dasharray:0.997, 0.997;stroke-dashoffset:0;stroke-opacity:1" />
    <path
       inkscape:connector-curvature="0"
       id="path7084"
       d="M 99.714391,187.12912 50.814044,236.02946"
       style="fill:none;stroke:#000000;stroke-width:0.99699998;stroke-linecap:butt;stroke-linejoin:miter;stroke-miterlimit:4;stroke-dasharray:0.997, 0.997;stroke-dashoffset:0;stroke-opacity:1" />
    <path
       inkscape:connector-curvature="0"
       id="path7086"
       d="m 113.8765,210.27923 -69.155532,-1e-5"
       style="fill:none;stroke:#000000;stroke-width:0.99699998;stroke-linecap:butt;stroke-linejoin:miter;stroke-miterlimit:4;stroke-dasharray:0.99700001, 0.99700001;stroke-dashoffset:0;stroke-opacity:1" />
    <path
       inkscape:connector-curvature="0"
       id="path7088"
       d="m 166.23179,143.06687 v 92.48079"
       style="fill:none;stroke:#000000;stroke-width:1.33332336;stroke-linecap:butt;stroke-linejoin:miter;stroke-miterlimit:4;stroke-dasharray:none;stroke-opacity:1;marker-start:url(#marker7786)" />
    <path
       inkscape:connector-curvature="0"
       id="path7090"
       d="m 233.48069,235.54766 h -67.2489"
       style="fill:none;stroke:#000000;stroke-width:1.13697863;stroke-linecap:butt;stroke-linejoin:miter;stroke-miterlimit:4;stroke-dasharray:none;stroke-opacity:1;marker-start:url(#marker8126)" />
    <path
       inkscape:connector-curvature="0"
       id="path7092"
       d="M 215.01324,186.76621 166.1129,235.66656"
       style="fill:none;stroke:#000000;stroke-width:0.99703628;stroke-linecap:butt;stroke-linejoin:miter;stroke-miterlimit:4;stroke-dasharray:none;stroke-opacity:1;marker-start:url(#marker7710)" />
    <circle
       r="2.0255504"
       cy="235.51736"
       cx="166.24026"
       id="circle7094"
       style="opacity:1;fill:#000000;fill-opacity:1;stroke:#000000;stroke-width:0.66371673;stroke-miterlimit:4;stroke-dasharray:none;stroke-opacity:1" />
    <path
       inkscape:connector-curvature="0"
       id="path7096"
       d="m 284.16879,186.76622 -48.90036,48.90034"
       style="fill:none;stroke:#000000;stroke-width:0.99699998;stroke-linecap:butt;stroke-linejoin:miter;stroke-miterlimit:4;stroke-dasharray:0.997, 0.997;stroke-dashoffset:0;stroke-opacity:1" />
    <path
       inkscape:connector-curvature="0"
       id="path7098"
       d="m 284.16879,186.76622 -69.15555,-1e-5"
       style="fill:none;stroke:#000000;stroke-width:0.99699998;stroke-linecap:butt;stroke-linejoin:miter;stroke-miterlimit:4;stroke-dasharray:0.99700001, 0.99700001;stroke-dashoffset:0;stroke-opacity:1" />
    <path
       inkscape:connector-curvature="0"
       id="path7100"
       d="m 246.25968,186.74947 -48.90035,48.90034"
       style="fill:none;stroke:#000000;stroke-width:0.99699998;stroke-linecap:butt;stroke-linejoin:miter;stroke-miterlimit:4;stroke-dasharray:0.99700001, 0.99700001;stroke-dashoffset:0;stroke-opacity:1" />
    <path
       inkscape:connector-curvature="0"
       id="path7102"
       d="m 260.42179,209.89958 -69.15553,-10e-6"
       style="fill:none;stroke:#000000;stroke-width:0.99699998;stroke-linecap:butt;stroke-linejoin:miter;stroke-miterlimit:4;stroke-dasharray:0.99700002, 0.99700002;stroke-dashoffset:0;stroke-opacity:1" />
    <text
       id="text7106"
       y="146.0199"
       x="171.09776"
       style="font-style:normal;font-weight:normal;font-size:10.58333302px;line-height:1.25;font-family:sans-serif;letter-spacing:0px;word-spacing:0px;fill:#000000;fill-opacity:1;stroke:none;stroke-width:0.26458332"
       xml:space="preserve"><tspan
         style="fill:#000000;fill-opacity:1;stroke-width:0.26458332"
         y="146.0199"
         x="171.09776"
         id="tspan7104"
         sodipodi:role="line">z-up</tspan></text>
    <text
       id="text7110"
       y="184.49736"
       x="208.0127"
       style="font-style:normal;font-weight:normal;font-size:10.58333302px;line-height:1.25;font-family:sans-serif;letter-spacing:0px;word-spacing:0px;fill:#000000;fill-opacity:1;stroke:none;stroke-width:0.26458332"
       xml:space="preserve"><tspan
         style="fill:#000000;fill-opacity:1;stroke-width:0.26458332"
         y="184.49736"
         x="208.0127"
         id="tspan7108"
         sodipodi:role="line">y</tspan></text>
    <text
       id="text7114"
       y="244.85033"
       x="232.03671"
       style="font-style:normal;font-weight:normal;font-size:10.58333302px;line-height:1.25;font-family:sans-serif;letter-spacing:0px;word-spacing:0px;fill:#000000;fill-opacity:1;stroke:none;stroke-width:0.26458332"
       xml:space="preserve"><tspan
         style="fill:#000000;fill-opacity:1;stroke-width:0.26458332"
         y="244.85033"
         x="232.03671"
         id="tspan7112"
         sodipodi:role="line">x</tspan></text>
    <text
       id="text7118"
       y="182.15356"
       x="227.5444"
       style="font-style:normal;font-weight:normal;font-size:7.4083333px;line-height:1.25;font-family:sans-serif;letter-spacing:0px;word-spacing:0px;fill:#000000;fill-opacity:1;stroke:none;stroke-width:0.26458332"
       xml:space="preserve"><tspan
         style="fill:#000000;fill-opacity:1;stroke-width:0.26458332"
         y="182.15356"
         x="227.5444"
         id="tspan7116"
         sodipodi:role="line">vec2 v(v3);</tspan></text>
    <text
       id="text7122"
       y="181.95824"
       x="71.876686"
       style="font-style:normal;font-weight:normal;font-size:7.4083333px;line-height:1.25;font-family:sans-serif;letter-spacing:0px;word-spacing:0px;fill:#000000;fill-opacity:1;stroke:none;stroke-width:0.26458332"
       xml:space="preserve"><tspan
         style="fill:#000000;fill-opacity:1;stroke-width:0.26458332"
         y="181.95824"
         x="71.876686"
         id="tspan7120"
         sodipodi:role="line">vec2 v(v3.x, v3.z);</tspan></text>
  </g>
  <g
     inkscape:label="Копия слоя Копия слоя Layer 1"
     inkscape:groupmode="layer"
     id="g7228"
     transform="translate(0,-87)"
     style="display:inline"
     sodipodi:insensitive="true">
    <path
       style="fill:none;stroke:#00ff00;stroke-width:1.33332336;stroke-linecap:butt;stroke-linejoin:miter;stroke-miterlimit:4;stroke-dasharray:none;stroke-opacity:1;marker-start:url(#Arrow2Mstart)"
       d="m 19.686501,143.44652 v 92.48079"
       id="path7164"
       inkscape:connector-curvature="0" />
    <path
       style="fill:none;stroke:#ff0000;stroke-width:1.13697863;stroke-linecap:butt;stroke-linejoin:miter;stroke-miterlimit:4;stroke-dasharray:none;stroke-opacity:1;marker-start:url(#Arrow2Mstart-3)"
       d="M 86.935395,235.92731 H 19.686501"
       id="path7166"
       inkscape:connector-curvature="0" />
    <path
       style="fill:none;stroke:#0000ff;stroke-width:0.99703628;stroke-linecap:butt;stroke-linejoin:miter;stroke-miterlimit:4;stroke-dasharray:none;stroke-opacity:1;marker-start:url(#Arrow2Mstart-3-5)"
       d="M 68.467951,187.14586 19.567606,236.04621"
       id="path7168"
       inkscape:connector-curvature="0" />
    <circle
       style="opacity:1;fill:#d6d6d6;fill-opacity:1;stroke:#b3b3b3;stroke-width:0.66371673;stroke-miterlimit:4;stroke-dasharray:none;stroke-opacity:1"
       id="circle7170"
       cx="19.694962"
       cy="235.89702"
       r="2.0255504" />
    <text
       xml:space="preserve"
       style="font-style:normal;font-variant:normal;font-weight:normal;font-stretch:normal;font-size:8.7804184px;line-height:1.25;font-family:'DejaVu Sans Mono';-inkscape-font-specification:'DejaVu Sans Mono';letter-spacing:0px;word-spacing:0px;fill:#00ff00;fill-opacity:1;stroke:none;stroke-width:0.21951047"
       x="24.802483"
       y="144.4182"
       id="text7174"><tspan
         sodipodi:role="line"
         id="tspan7172"
         x="24.802483"
         y="144.4182"
         style="fill:#00ff00;fill-opacity:1;stroke-width:0.21951047">y-up</tspan></text>
    <text
       xml:space="preserve"
       style="font-style:normal;font-weight:normal;font-size:10.58333302px;line-height:1.25;font-family:sans-serif;letter-spacing:0px;word-spacing:0px;fill:#0000ff;fill-opacity:1;stroke:none;stroke-width:0.21951047"
       x="61.624401"
       y="185.82523"
       id="text7178"><tspan
         sodipodi:role="line"
         id="tspan7176"
         x="61.624401"
         y="185.82523"
         style="font-size:10.58333302px;fill:#0000ff;fill-opacity:1;stroke-width:0.21951047">z</tspan></text>
    <text
       xml:space="preserve"
       style="font-style:normal;font-weight:normal;font-size:10.58333302px;line-height:1.25;font-family:sans-serif;letter-spacing:0px;word-spacing:0px;fill:#ff0000;fill-opacity:1;stroke:none;stroke-width:0.26458332"
       x="83.791016"
       y="246.02226"
       id="text7182"><tspan
         sodipodi:role="line"
         id="tspan7180"
         x="83.791016"
         y="246.02226"
         style="fill:#ff0000;fill-opacity:1;stroke-width:0.26458332">x</tspan></text>
    <path
       style="fill:none;stroke:#ff0000;stroke-width:0.99699998;stroke-linecap:butt;stroke-linejoin:miter;stroke-miterlimit:4;stroke-dasharray:0.99699999, 0.99699999;stroke-dashoffset:0;stroke-opacity:1"
       d="M 137.62349,187.14587 88.723143,236.04621"
       id="path7184"
       inkscape:connector-curvature="0" />
    <path
       style="fill:none;stroke:#0000ff;stroke-width:0.99699998;stroke-linecap:butt;stroke-linejoin:miter;stroke-miterlimit:4;stroke-dasharray:0.997, 0.997;stroke-dashoffset:0;stroke-opacity:1"
       d="m 137.62349,187.14587 -69.155539,-1e-5"
       id="path7186"
       inkscape:connector-curvature="0" />
    <path
       style="fill:none;stroke:#ff0000;stroke-width:0.99699998;stroke-linecap:butt;stroke-linejoin:miter;stroke-miterlimit:4;stroke-dasharray:0.997, 0.997;stroke-dashoffset:0;stroke-opacity:1"
       d="M 99.714391,187.12912 50.814044,236.02946"
       id="path7188"
       inkscape:connector-curvature="0" />
    <path
       style="fill:none;stroke:#0000ff;stroke-width:0.99699998;stroke-linecap:butt;stroke-linejoin:miter;stroke-miterlimit:4;stroke-dasharray:0.99700001, 0.99700001;stroke-dashoffset:0;stroke-opacity:1"
       d="m 113.8765,210.27923 -69.155532,-1e-5"
       id="path7190"
       inkscape:connector-curvature="0" />
    <path
       style="fill:none;stroke:#0000ff;stroke-width:1.33332336;stroke-linecap:butt;stroke-linejoin:miter;stroke-miterlimit:4;stroke-dasharray:none;stroke-opacity:1;marker-start:url(#Arrow2Mstart-6)"
       d="m 166.23179,143.06687 v 92.48079"
       id="path7192"
       inkscape:connector-curvature="0" />
    <path
       style="fill:none;stroke:#ff0000;stroke-width:1.13697863;stroke-linecap:butt;stroke-linejoin:miter;stroke-miterlimit:4;stroke-dasharray:none;stroke-opacity:1;marker-start:url(#Arrow2Mstart-3-2)"
       d="m 233.48069,235.54766 h -67.2489"
       id="path7194"
       inkscape:connector-curvature="0" />
    <path
       style="fill:none;stroke:#00ff00;stroke-width:0.99703628;stroke-linecap:butt;stroke-linejoin:miter;stroke-miterlimit:4;stroke-dasharray:none;stroke-opacity:1;marker-start:url(#Arrow2Mstart-3-5-9)"
       d="M 215.01324,186.76621 166.1129,235.66656"
       id="path7196"
       inkscape:connector-curvature="0" />
    <circle
       style="opacity:1;fill:#d6d6d6;fill-opacity:1;stroke:#b3b3b3;stroke-width:0.66371673;stroke-miterlimit:4;stroke-dasharray:none;stroke-opacity:1"
       id="circle7198"
       cx="166.24026"
       cy="235.51736"
       r="2.0255504" />
    <path
       style="fill:none;stroke:#ff0000;stroke-width:0.99699998;stroke-linecap:butt;stroke-linejoin:miter;stroke-miterlimit:4;stroke-dasharray:0.997, 0.997;stroke-dashoffset:0;stroke-opacity:1"
       d="m 284.16879,186.76622 -48.90036,48.90034"
       id="path7200"
       inkscape:connector-curvature="0" />
    <path
       style="fill:none;stroke:#00ff00;stroke-width:0.99699998;stroke-linecap:butt;stroke-linejoin:miter;stroke-miterlimit:4;stroke-dasharray:0.99700001, 0.99700001;stroke-dashoffset:0;stroke-opacity:1"
       d="m 284.16879,186.76622 -69.15555,-1e-5"
       id="path7202"
       inkscape:connector-curvature="0" />
    <path
       style="fill:none;stroke:#ff0000;stroke-width:0.99699998;stroke-linecap:butt;stroke-linejoin:miter;stroke-miterlimit:4;stroke-dasharray:0.99700001, 0.99700001;stroke-dashoffset:0;stroke-opacity:1"
       d="m 246.25968,186.74947 -48.90035,48.90034"
       id="path7204"
       inkscape:connector-curvature="0" />
    <path
       style="fill:none;stroke:#00ff00;stroke-width:0.99699998;stroke-linecap:butt;stroke-linejoin:miter;stroke-miterlimit:4;stroke-dasharray:0.99700002, 0.99700002;stroke-dashoffset:0;stroke-opacity:1"
       d="m 260.42179,209.89958 -69.15553,-10e-6"
       id="path7206"
       inkscape:connector-curvature="0" />
    <text
       xml:space="preserve"
       style="font-style:normal;font-weight:normal;font-size:10.58333302px;line-height:1.25;font-family:sans-serif;letter-spacing:0px;word-spacing:0px;fill:#0000ff;fill-opacity:1;stroke:none;stroke-width:0.26458332"
       x="171.09776"
       y="146.0199"
       id="text7210"><tspan
         sodipodi:role="line"
         id="tspan7208"
         x="171.09776"
         y="146.0199"
         style="fill:#0000ff;fill-opacity:1;stroke-width:0.26458332">z-up</tspan></text>
    <text
       xml:space="preserve"
       style="font-style:normal;font-weight:normal;font-size:10.58333302px;line-height:1.25;font-family:sans-serif;letter-spacing:0px;word-spacing:0px;fill:#00ff00;fill-opacity:1;stroke:none;stroke-width:0.26458332"
       x="208.0127"
       y="184.49736"
       id="text7214"><tspan
         sodipodi:role="line"
         id="tspan7212"
         x="208.0127"
         y="184.49736"
         style="fill:#00ff00;fill-opacity:1;stroke-width:0.26458332">y</tspan></text>
    <text
       xml:space="preserve"
       style="font-style:normal;font-weight:normal;font-size:10.58333302px;line-height:1.25;font-family:sans-serif;letter-spacing:0px;word-spacing:0px;fill:#ff0000;fill-opacity:1;stroke:none;stroke-width:0.26458332"
       x="232.03671"
       y="244.85033"
       id="text7218"><tspan
         sodipodi:role="line"
         id="tspan7216"
         x="232.03671"
         y="244.85033"
         style="fill:#ff0000;fill-opacity:1;stroke-width:0.26458332">x</tspan></text>
    <text
       xml:space="preserve"
       style="font-style:normal;font-weight:normal;font-size:7.4083333px;line-height:1.25;font-family:sans-serif;letter-spacing:0px;word-spacing:0px;fill:#ffffff;fill-opacity:1;stroke:none;stroke-width:0.26458332"
       x="227.5444"
       y="182.15356"
       id="text7222"><tspan
         sodipodi:role="line"
         id="tspan7220"
         x="227.5444"
         y="182.15356"
         style="fill:#ffffff;fill-opacity:1;stroke-width:0.26458332">vec2 v(v3);</tspan></text>
    <text
       xml:space="preserve"
       style="font-style:normal;font-weight:normal;font-size:7.4083333px;line-height:1.25;font-family:sans-serif;letter-spacing:0px;word-spacing:0px;fill:#ffffff;fill-opacity:1;stroke:none;stroke-width:0.26458332"
       x="71.876686"
       y="181.95824"
       id="text7226"><tspan
         sodipodi:role="line"
         id="tspan7224"
         x="71.876686"
         y="181.95824"
         style="fill:#ffffff;fill-opacity:1;stroke-width:0.26458332">vec2 v(v3.x, v3.z);</tspan></text>
  </g>
</svg>
